%module UtilWrap
%include "std_string.i"
//#include <boost/property_tree/ptree.hpp>
//#include <boost/property_tree/json_parser.hpp>

%{
#include "../include/util.hpp"

%}

/* Let's just grab the original header file here */
%include "../include/util.hpp"


